{
  "bezel_objects": [
    {
      "overrides": null,
      "id": "0602ddd8-f62c-4e3f-a009-70846663ccad",
      "type": "Plane",
      "lastWriter": "b3a63905-7e09-4f30-8af3-08ee32fc986e",
      "lastUpdated": 1706316571194,
      "name": "Tips",
      "parent": null,
      "index": "a0",
      "isVisible": true,
      "isLocked": false,
      "collapsed": false,
      "activeState": null,
      "activeParentStateId": null,
      "states": {},
      "parentStates": {},
      "startState": null,
      "colliders": {},
      "ttl": 0,
      "asset": null,
      "assetSource": null,
      "isInstance": false,
      "importedAnimations": {},
      "behaviors": {},
      "interactions": {},
      "version": 231130,
      "_metadata": {},
      "position": {
        "x": 0,
        "y": 0.27023665659837531,
        "z": -0.047650013734741849
      },
      "rotation": {
        "x": 1.3962634015954636,
        "y": 0,
        "z": 0
      },
      "scale": {
        "x": 1,
        "y": 0.99999999999999989,
        "z": 0.99999999999999989
      },
      "isScaleLinked": true,
      "lastGeometryUpdated": 1706387707162,
      "subdivisions": 0,
      "parameters": {
        "width": 0.644,
        "height": 0,
        "depth": 0.517,
        "radii": {
          "tl": 0,
          "tr": 0,
          "br": 0,
          "bl": 0
        },
        "bendAngle": 0,
        "areDimensionsLinked": false,
        "radiusSegments": 16,
        "bendSegments": 16
      },
      "material": "fffabbd0-a125-4d30-9bbb-7c587e6f1919",
      "viewSettings": {
        "castShadow": true,
        "receiveShadow": true,
        "side": 0
      },
      "isInteractive": true,
      "layerOpacity": 1,
      "activeImportedAnimation": null,
      "urlKey": null,
      "assetVersion": 0
    },
    {
      "overrides": null,
      "id": "51dcb093-baef-4409-baf7-5869081e0929",
      "type": "Plane",
      "lastWriter": "b3a63905-7e09-4f30-8af3-08ee32fc986e",
      "lastUpdated": 1706316595049,
      "name": "Welcome",
      "parent": null,
      "index": "Zy",
      "isVisible": true,
      "isLocked": false,
      "collapsed": false,
      "activeState": null,
      "activeParentStateId": null,
      "states": {},
      "parentStates": {},
      "startState": null,
      "colliders": {},
      "ttl": 0,
      "asset": null,
      "assetSource": null,
      "isInstance": false,
      "importedAnimations": {},
      "behaviors": {},
      "interactions": {},
      "version": 231130,
      "_metadata": {},
      "position": {
        "x": 1.03815035374237,
        "y": 0.26532965412509429,
        "z": -0.046784776804299322
      },
      "rotation": {
        "x": 1.3962634015954631,
        "y": 0,
        "z": 0
      },
      "scale": {
        "x": 1,
        "y": 0.99999999999999967,
        "z": 0.99999999999999967
      },
      "isScaleLinked": true,
      "lastGeometryUpdated": 1706387707172,
      "subdivisions": 0,
      "parameters": {
        "width": 0.96784273697887768,
        "height": 0,
        "depth": 0.53939736311344877,
        "radii": {
          "tl": 0,
          "tr": 0,
          "br": 0,
          "bl": 0
        },
        "bendAngle": 0,
        "areDimensionsLinked": false,
        "radiusSegments": 16,
        "bendSegments": 16
      },
      "material": "41539d36-47c3-4b3e-9f38-71f170a6ad0d",
      "viewSettings": {
        "castShadow": true,
        "receiveShadow": true,
        "side": 0
      },
      "isInteractive": true,
      "layerOpacity": 1,
      "activeImportedAnimation": null,
      "urlKey": null,
      "assetVersion": 0
    },
    {
      "overrides": null,
      "id": "0704ada9-017b-4856-a9ef-f291e50d161a",
      "type": "Plane",
      "lastWriter": "b3a63905-7e09-4f30-8af3-08ee32fc986e",
      "lastUpdated": 1706316931636,
      "name": "Freestyle button",
      "parent": null,
      "index": "Zx",
      "isVisible": true,
      "isLocked": false,
      "collapsed": false,
      "activeState": null,
      "activeParentStateId": null,
      "states": {},
      "parentStates": {},
      "startState": null,
      "colliders": {},
      "ttl": 0,
      "asset": null,
      "assetSource": null,
      "isInstance": false,
      "importedAnimations": {},
      "behaviors": {},
      "interactions": {},
      "version": 231130,
      "_metadata": {},
      "position": {
        "x": 0.89324111787611871,
        "y": 0.066183741671877225,
        "z": 0.0039283690097565724
      },
      "rotation": {
        "x": 1.3962634015954631,
        "y": 0,
        "z": 0
      },
      "scale": {
        "x": 1,
        "y": 0.99999999999999978,
        "z": 0.99999999999999978
      },
      "isScaleLinked": true,
      "lastGeometryUpdated": 1706389764129,
      "subdivisions": 0,
      "parameters": {
        "width": 0.234,
        "height": 0,
        "depth": 0.093,
        "radii": {
          "tl": 0,
          "tr": 0,
          "br": 0,
          "bl": 0
        },
        "bendAngle": 0,
        "areDimensionsLinked": false,
        "radiusSegments": 16,
        "bendSegments": 16
      },
      "material": "15eeb30d-9865-4da6-8727-9a8451bf2e82",
      "viewSettings": {
        "castShadow": true,
        "receiveShadow": true,
        "side": 0
      },
      "isInteractive": true,
      "layerOpacity": 1,
      "activeImportedAnimation": null,
      "urlKey": null,
      "assetVersion": 0
    },
    {
      "overrides": null,
      "id": "7db7463b-b207-40da-82ca-fc4bfcd9f422",
      "type": "Plane",
      "lastWriter": "b3a63905-7e09-4f30-8af3-08ee32fc986e",
      "lastUpdated": 1706316937956,
      "name": "Tutorial button",
      "parent": null,
      "index": "Zw",
      "isVisible": true,
      "isLocked": false,
      "collapsed": false,
      "activeState": null,
      "activeParentStateId": null,
      "states": {},
      "parentStates": {},
      "startState": null,
      "colliders": {},
      "ttl": 0,
      "asset": null,
      "assetSource": null,
      "isInstance": false,
      "importedAnimations": {},
      "behaviors": {},
      "interactions": {},
      "version": 231130,
      "_metadata": {},
      "position": {
        "x": 1.3688432454167914,
        "y": 0.072427530145092733,
        "z": 0.0030985005531063235
      },
      "rotation": {
        "x": 1.3962634015954631,
        "y": 0,
        "z": 0
      },
      "scale": {
        "x": 1,
        "y": 0.99999999999999978,
        "z": 0.99999999999999978
      },
      "isScaleLinked": true,
      "lastGeometryUpdated": 1706389764631,
      "subdivisions": 0,
      "parameters": {
        "width": 0.234,
        "height": 0,
        "depth": 0.093,
        "radii": {
          "tl": 0,
          "tr": 0,
          "br": 0,
          "bl": 0
        },
        "bendAngle": 0,
        "areDimensionsLinked": false,
        "radiusSegments": 16,
        "bendSegments": 16
      },
      "material": "2de8b682-1b17-4d2c-a577-f69cac9749d2",
      "viewSettings": {
        "castShadow": true,
        "receiveShadow": true,
        "side": 0
      },
      "isInteractive": true,
      "layerOpacity": 1,
      "activeImportedAnimation": null,
      "urlKey": null,
      "assetVersion": 0
    },
    {
      "overrides": null,
      "id": "5549fd0c-7f9f-4b0b-ae49-70f17b46ba0a",
      "type": "Plane",
      "lastWriter": "b3a63905-7e09-4f30-8af3-08ee32fc986e",
      "lastUpdated": 1706319463129,
      "name": "Next Swing Card",
      "parent": null,
      "index": "Zt",
      "isVisible": true,
      "isLocked": false,
      "collapsed": false,
      "activeState": null,
      "activeParentStateId": null,
      "states": {},
      "parentStates": {},
      "startState": null,
      "colliders": {},
      "ttl": 0,
      "asset": null,
      "assetSource": null,
      "isInstance": false,
      "importedAnimations": {},
      "behaviors": {},
      "interactions": {},
      "version": 231130,
      "_metadata": {},
      "position": {
        "x": 2.2143515724729328,
        "y": 0.31186735721169639,
        "z": -0.054990629478666807
      },
      "rotation": {
        "x": 1.3962634015954636,
        "y": 0,
        "z": 0
      },
      "scale": {
        "x": 1,
        "y": 0.99999999999999989,
        "z": 0.99999999999999989
      },
      "isScaleLinked": true,
      "lastGeometryUpdated": 1706387707200,
      "subdivisions": 0,
      "parameters": {
        "width": 0.518,
        "height": 0,
        "depth": 0.372,
        "radii": {
          "tl": 0,
          "tr": 0,
          "br": 0,
          "bl": 0
        },
        "bendAngle": 0,
        "areDimensionsLinked": false,
        "radiusSegments": 16,
        "bendSegments": 16
      },
      "material": "b31482d2-b7d3-4c80-9b7c-b61551595308",
      "viewSettings": {
        "castShadow": true,
        "receiveShadow": true,
        "side": 0
      },
      "isInteractive": true,
      "layerOpacity": 1,
      "activeImportedAnimation": null,
      "urlKey": null,
      "assetVersion": 0
    },
    {
      "overrides": null,
      "id": "860b8295-46a5-462a-8ec5-52860ac2474d",
      "type": "Plane",
      "lastWriter": "b3a63905-7e09-4f30-8af3-08ee32fc986e",
      "lastUpdated": 1706319466763,
      "name": "Play button",
      "parent": null,
      "index": "Zs",
      "isVisible": true,
      "isLocked": false,
      "collapsed": false,
      "activeState": null,
      "activeParentStateId": null,
      "states": {},
      "parentStates": {},
      "startState": null,
      "colliders": {},
      "ttl": 0,
      "asset": null,
      "assetSource": null,
      "isInstance": false,
      "importedAnimations": {},
      "behaviors": {},
      "interactions": {},
      "version": 231130,
      "_metadata": {},
      "position": {
        "x": 2.2072292452011428,
        "y": 0.28467480309777266,
        "z": -0.031549587122814207
      },
      "rotation": {
        "x": 1.3962634015954631,
        "y": 0,
        "z": 0
      },
      "scale": {
        "x": 1,
        "y": 0.99999999999999978,
        "z": 0.99999999999999978
      },
      "isScaleLinked": true,
      "lastGeometryUpdated": 1706387707207,
      "subdivisions": 0,
      "parameters": {
        "width": 0.169,
        "height": 0,
        "depth": 0.169,
        "radii": {
          "tl": 0,
          "tr": 0,
          "br": 0,
          "bl": 0
        },
        "bendAngle": 0,
        "areDimensionsLinked": false,
        "radiusSegments": 16,
        "bendSegments": 16
      },
      "material": "c837f8a5-d267-4053-8f72-23059c858ad8",
      "viewSettings": {
        "castShadow": true,
        "receiveShadow": true,
        "side": 0
      },
      "isInteractive": true,
      "layerOpacity": 1,
      "activeImportedAnimation": null,
      "urlKey": null,
      "assetVersion": 0
    },
    {
      "overrides": null,
      "id": "15d9bade-aa6a-49e6-a4c9-fc551b5f85e8",
      "type": "Plane",
      "lastWriter": "b3a63905-7e09-4f30-8af3-08ee32fc986e",
      "lastUpdated": 1706368322271,
      "name": "Home button",
      "parent": null,
      "index": "Zv",
      "isVisible": true,
      "isLocked": false,
      "collapsed": false,
      "activeState": null,
      "activeParentStateId": null,
      "states": {},
      "parentStates": {},
      "startState": null,
      "colliders": {},
      "ttl": 0,
      "asset": null,
      "assetSource": null,
      "isInstance": false,
      "importedAnimations": {},
      "behaviors": {},
      "interactions": {},
      "version": 231130,
      "_metadata": {},
      "position": {
        "x": 1.4782528825285828,
        "y": 0.49118159409100087,
        "z": -0.080493929763011174
      },
      "rotation": {
        "x": 1.3962634015954631,
        "y": 0,
        "z": 0
      },
      "scale": {
        "x": 1,
        "y": 0.99999999999999978,
        "z": 0.99999999999999978
      },
      "isScaleLinked": true,
      "lastGeometryUpdated": 1706387707219,
      "subdivisions": 0,
      "parameters": {
        "width": 0.044,
        "height": 0,
        "depth": 0.044,
        "radii": {
          "tl": 0,
          "tr": 0,
          "br": 0,
          "bl": 0
        },
        "bendAngle": 0,
        "areDimensionsLinked": false,
        "radiusSegments": 16,
        "bendSegments": 16
      },
      "material": "d0a78dcd-acbf-4523-973c-aed00298ade5",
      "viewSettings": {
        "castShadow": true,
        "receiveShadow": true,
        "side": 0
      },
      "isInteractive": true,
      "layerOpacity": 1,
      "activeImportedAnimation": null,
      "urlKey": null,
      "assetVersion": 0
    },
    {
      "overrides": null,
      "id": "e65e92a9-2f97-4d13-a9ed-6074ca6e4786",
      "type": "Plane",
      "lastWriter": "b3a63905-7e09-4f30-8af3-08ee32fc986e",
      "lastUpdated": 1706369260093,
      "name": "Exit button",
      "parent": null,
      "index": "Zz",
      "isVisible": true,
      "isLocked": false,
      "collapsed": false,
      "activeState": null,
      "activeParentStateId": null,
      "states": {},
      "parentStates": {},
      "startState": null,
      "colliders": {},
      "ttl": 0,
      "asset": null,
      "assetSource": null,
      "isInstance": false,
      "importedAnimations": {},
      "behaviors": {},
      "interactions": {},
      "version": 231130,
      "_metadata": {},
      "position": {
        "x": 0.27722020232818134,
        "y": 0.4850887805969229,
        "z": -0.078677753564176348
      },
      "rotation": {
        "x": 1.3962634015954631,
        "y": 0,
        "z": 0
      },
      "scale": {
        "x": 1,
        "y": 0.99999999999999978,
        "z": 0.99999999999999978
      },
      "isScaleLinked": true,
      "lastGeometryUpdated": 1706387707227,
      "subdivisions": 0,
      "parameters": {
        "width": 0.047701236717358,
        "height": 0,
        "depth": 0.047701236717358,
        "radii": {
          "tl": 0,
          "tr": 0,
          "br": 0,
          "bl": 0
        },
        "bendAngle": 0,
        "areDimensionsLinked": false,
        "radiusSegments": 16,
        "bendSegments": 16
      },
      "material": "e72fe068-6507-4b87-9689-f4795205bfa0",
      "viewSettings": {
        "castShadow": true,
        "receiveShadow": true,
        "side": 0
      },
      "isInteractive": true,
      "layerOpacity": 1,
      "activeImportedAnimation": null,
      "urlKey": null,
      "assetVersion": 0
    },
    {
      "overrides": null,
      "id": "74c7eecd-a0a7-408a-9449-c96d2f5154f2",
      "type": "Plane",
      "lastWriter": "b3a63905-7e09-4f30-8af3-08ee32fc986e",
      "lastUpdated": 1706369316154,
      "name": "Exit button 1",
      "parent": null,
      "index": "ZyV",
      "isVisible": true,
      "isLocked": false,
      "collapsed": false,
      "activeState": null,
      "activeParentStateId": null,
      "states": {},
      "parentStates": {},
      "startState": null,
      "colliders": {},
      "ttl": 0,
      "asset": null,
      "assetSource": null,
      "isInstance": false,
      "importedAnimations": {},
      "behaviors": {},
      "interactions": {},
      "version": 231130,
      "_metadata": {},
      "position": {
        "x": 3.1222258090314035,
        "y": 0.67196954573628476,
        "z": -0.11162987463368787
      },
      "rotation": {
        "x": 1.3962634015954631,
        "y": 0,
        "z": 0
      },
      "scale": {
        "x": 1,
        "y": 0.99999999999999978,
        "z": 0.99999999999999978
      },
      "isScaleLinked": true,
      "lastGeometryUpdated": 1706387707236,
      "subdivisions": 0,
      "parameters": {
        "width": 0.028920303830549617,
        "height": 0,
        "depth": 0.028920303830549617,
        "radii": {
          "tl": 0,
          "tr": 0,
          "br": 0,
          "bl": 0
        },
        "bendAngle": 0,
        "areDimensionsLinked": false,
        "radiusSegments": 16,
        "bendSegments": 16
      },
      "material": "c12e2eb5-12ac-4c2f-b6c6-1c39f795cc76",
      "viewSettings": {
        "castShadow": true,
        "receiveShadow": true,
        "side": 0
      },
      "isInteractive": true,
      "layerOpacity": 1,
      "activeImportedAnimation": null,
      "urlKey": null,
      "assetVersion": 0
    },
    {
      "overrides": null,
      "id": "be082a5f-c94c-4f3e-b07f-923ecaefb65f",
      "type": "Plane",
      "lastWriter": "b3a63905-7e09-4f30-8af3-08ee32fc986e",
      "lastUpdated": 1706370338860,
      "name": "Score 1",
      "parent": null,
      "index": "Zl",
      "isVisible": true,
      "isLocked": false,
      "collapsed": false,
      "activeState": null,
      "activeParentStateId": null,
      "states": {},
      "parentStates": {},
      "startState": null,
      "colliders": {},
      "ttl": 0,
      "asset": null,
      "assetSource": null,
      "isInstance": false,
      "importedAnimations": {},
      "behaviors": {},
      "interactions": {},
      "version": 231130,
      "_metadata": {},
      "position": {
        "x": 3.3806592396200532,
        "y": 0.39650137226036647,
        "z": -0.069913889817433739
      },
      "rotation": {
        "x": 1.3962634015954631,
        "y": 0,
        "z": 0
      },
      "scale": {
        "x": 1,
        "y": 0.99999999999999978,
        "z": 0.99999999999999978
      },
      "isScaleLinked": true,
      "lastGeometryUpdated": 1706387707243,
      "subdivisions": 0,
      "parameters": {
        "width": 0.29,
        "height": 0,
        "depth": 0.29,
        "radii": {
          "tl": 0,
          "tr": 0,
          "br": 0,
          "bl": 0
        },
        "bendAngle": 0,
        "areDimensionsLinked": false,
        "radiusSegments": 16,
        "bendSegments": 16
      },
      "material": "12d81f22-8813-44ad-aa10-eed85f291c2f",
      "viewSettings": {
        "castShadow": true,
        "receiveShadow": true,
        "side": 0
      },
      "isInteractive": true,
      "layerOpacity": 1,
      "activeImportedAnimation": null,
      "urlKey": null,
      "assetVersion": 0
    },
    {
      "overrides": null,
      "id": "b87f468c-9112-444d-ad43-cb043cb2b851",
      "type": "Plane",
      "lastWriter": "b3a63905-7e09-4f30-8af3-08ee32fc986e",
      "lastUpdated": 1706370343335,
      "name": "Score 2",
      "parent": null,
      "index": "Zk",
      "isVisible": true,
      "isLocked": false,
      "collapsed": false,
      "activeState": null,
      "activeParentStateId": null,
      "states": {},
      "parentStates": {},
      "startState": null,
      "colliders": {},
      "ttl": 0,
      "asset": null,
      "assetSource": null,
      "isInstance": false,
      "importedAnimations": {},
      "behaviors": {},
      "interactions": {},
      "version": 231130,
      "_metadata": {},
      "position": {
        "x": 3.7971952479067843,
        "y": 0.39006639442523811,
        "z": -0.068779229604839648
      },
      "rotation": {
        "x": 1.3962634015954631,
        "y": 0,
        "z": 0
      },
      "scale": {
        "x": 1,
        "y": 0.99999999999999978,
        "z": 0.99999999999999978
      },
      "isScaleLinked": true,
      "lastGeometryUpdated": 1706387707255,
      "subdivisions": 0,
      "parameters": {
        "width": 0.29,
        "height": 0,
        "depth": 0.29,
        "radii": {
          "tl": 0,
          "tr": 0,
          "br": 0,
          "bl": 0
        },
        "bendAngle": 0,
        "areDimensionsLinked": false,
        "radiusSegments": 16,
        "bendSegments": 16
      },
      "material": "bd3b1b38-fcb7-4534-be10-307980c960b1",
      "viewSettings": {
        "castShadow": true,
        "receiveShadow": true,
        "side": 0
      },
      "isInteractive": true,
      "layerOpacity": 1,
      "activeImportedAnimation": null,
      "urlKey": null,
      "assetVersion": 0
    },
    {
      "overrides": null,
      "id": "e9ef121d-505d-41ce-ab01-d3f7cc6ee585",
      "type": "Plane",
      "lastWriter": "b3a63905-7e09-4f30-8af3-08ee32fc986e",
      "lastUpdated": 1706370348677,
      "name": "Score 3",
      "parent": null,
      "index": "Zj",
      "isVisible": true,
      "isLocked": false,
      "collapsed": false,
      "activeState": null,
      "activeParentStateId": null,
      "states": {},
      "parentStates": {},
      "startState": null,
      "colliders": {},
      "ttl": 0,
      "asset": null,
      "assetSource": null,
      "isInstance": false,
      "importedAnimations": {},
      "behaviors": {},
      "interactions": {},
      "version": 231130,
      "_metadata": {},
      "position": {
        "x": 4.1516965268194079,
        "y": 0.36521509632588239,
        "z": -0.064397275244294228
      },
      "rotation": {
        "x": 1.3962634015954631,
        "y": 0,
        "z": 0
      },
      "scale": {
        "x": 1,
        "y": 0.99999999999999978,
        "z": 0.99999999999999978
      },
      "isScaleLinked": true,
      "lastGeometryUpdated": 1706387707263,
      "subdivisions": 0,
      "parameters": {
        "width": 0.29,
        "height": 0,
        "depth": 0.29,
        "radii": {
          "tl": 0,
          "tr": 0,
          "br": 0,
          "bl": 0
        },
        "bendAngle": 0,
        "areDimensionsLinked": false,
        "radiusSegments": 16,
        "bendSegments": 16
      },
      "material": "067c2908-90bc-4c2d-acbe-7daf986c1cd7",
      "viewSettings": {
        "castShadow": true,
        "receiveShadow": true,
        "side": 0
      },
      "isInteractive": true,
      "layerOpacity": 1,
      "activeImportedAnimation": null,
      "urlKey": null,
      "assetVersion": 0
    },
    {
      "overrides": null,
      "id": "579aec94-9919-4493-9dc2-8b3ccb17c023",
      "type": "Plane",
      "lastWriter": "b3a63905-7e09-4f30-8af3-08ee32fc986e",
      "lastUpdated": 1706370354525,
      "name": "Score 4",
      "parent": null,
      "index": "Zi",
      "isVisible": true,
      "isLocked": false,
      "collapsed": false,
      "activeState": null,
      "activeParentStateId": null,
      "states": {},
      "parentStates": {},
      "startState": null,
      "colliders": {},
      "ttl": 0,
      "asset": null,
      "assetSource": null,
      "isInstance": false,
      "importedAnimations": {},
      "behaviors": {},
      "interactions": {},
      "version": 231130,
      "_metadata": {},
      "position": {
        "x": 4.417952045398982,
        "y": 0.36804216265208689,
        "z": -0.06489576331385645
      },
      "rotation": {
        "x": 1.3962634015954631,
        "y": 0,
        "z": 0
      },
      "scale": {
        "x": 1,
        "y": 0.99999999999999978,
        "z": 0.99999999999999978
      },
      "isScaleLinked": true,
      "lastGeometryUpdated": 1706387707272,
      "subdivisions": 0,
      "parameters": {
        "width": 0.29,
        "height": 0,
        "depth": 0.29,
        "radii": {
          "tl": 0,
          "tr": 0,
          "br": 0,
          "bl": 0
        },
        "bendAngle": 0,
        "areDimensionsLinked": false,
        "radiusSegments": 16,
        "bendSegments": 16
      },
      "material": "fb142658-63b6-45fb-87fe-caf73529811e",
      "viewSettings": {
        "castShadow": true,
        "receiveShadow": true,
        "side": 0
      },
      "isInteractive": true,
      "layerOpacity": 1,
      "activeImportedAnimation": null,
      "urlKey": null,
      "assetVersion": 0
    },
    {
      "overrides": null,
      "id": "9a056cf6-8d16-4af8-ba3a-3686ba03a57d",
      "type": "Plane",
      "lastWriter": "b3a63905-7e09-4f30-8af3-08ee32fc986e",
      "lastUpdated": 1706370368161,
      "name": "Score Board Panel",
      "parent": null,
      "index": "Zr",
      "isVisible": true,
      "isLocked": false,
      "collapsed": false,
      "activeState": null,
      "activeParentStateId": null,
      "states": {},
      "parentStates": {},
      "startState": null,
      "colliders": {},
      "ttl": 0,
      "asset": null,
      "assetSource": null,
      "isInstance": false,
      "importedAnimations": {},
      "behaviors": {},
      "interactions": {},
      "version": 231130,
      "_metadata": {},
      "position": {
        "x": 2.9416722803141586,
        "y": 0.41809678339771006,
        "z": -0.0737217434604395
      },
      "rotation": {
        "x": 1.3962634015954631,
        "y": 0,
        "z": 0
      },
      "scale": {
        "x": 1,
        "y": 0.99999999999999978,
        "z": 0.99999999999999978
      },
      "isScaleLinked": true,
      "lastGeometryUpdated": 1706387707282,
      "subdivisions": 0,
      "parameters": {
        "width": 0.425,
        "height": 0,
        "depth": 0.578,
        "radii": {
          "tl": 0,
          "tr": 0,
          "br": 0,
          "bl": 0
        },
        "bendAngle": 0,
        "areDimensionsLinked": false,
        "radiusSegments": 16,
        "bendSegments": 16
      },
      "material": "d6fa4233-a7a6-4ce8-ab08-ccc1d473d3b2",
      "viewSettings": {
        "castShadow": true,
        "receiveShadow": true,
        "side": 0
      },
      "isInteractive": true,
      "layerOpacity": 1,
      "activeImportedAnimation": null,
      "urlKey": null,
      "assetVersion": 0
    },
    {
      "overrides": null,
      "id": "a53c6853-da57-4a79-b61e-13cc8e05c04f",
      "type": "Plane",
      "lastWriter": "b3a63905-7e09-4f30-8af3-08ee32fc986e",
      "lastUpdated": 1706370391508,
      "name": "Home button",
      "parent": null,
      "index": "Zp",
      "isVisible": true,
      "isLocked": false,
      "collapsed": false,
      "activeState": null,
      "activeParentStateId": null,
      "states": {},
      "parentStates": {},
      "startState": null,
      "colliders": {},
      "ttl": 0,
      "asset": null,
      "assetSource": null,
      "isInstance": false,
      "importedAnimations": {},
      "behaviors": {},
      "interactions": {},
      "version": 231130,
      "_metadata": {},
      "position": {
        "x": 2.8778250417209472,
        "y": 0.21906075384712614,
        "z": -0.030092938074058686
      },
      "rotation": {
        "x": 1.3962634015954631,
        "y": 0,
        "z": 0
      },
      "scale": {
        "x": 1,
        "y": 0.99999999999999978,
        "z": 0.99999999999999978
      },
      "isScaleLinked": true,
      "lastGeometryUpdated": 1706387707298,
      "subdivisions": 0,
      "parameters": {
        "width": 0.061,
        "height": 0,
        "depth": 0.062,
        "radii": {
          "tl": 0,
          "tr": 0,
          "br": 0,
          "bl": 0
        },
        "bendAngle": 0,
        "areDimensionsLinked": false,
        "radiusSegments": 16,
        "bendSegments": 16
      },
      "material": "81c5747b-0c8f-4c4c-94a5-9456c50b6272",
      "viewSettings": {
        "castShadow": true,
        "receiveShadow": true,
        "side": 0
      },
      "isInteractive": true,
      "layerOpacity": 1,
      "activeImportedAnimation": null,
      "urlKey": null,
      "assetVersion": 0
    },
    {
      "overrides": null,
      "id": "7943eca6-ea17-42a3-9683-50b3840de2f6",
      "type": "Plane",
      "lastWriter": "b3a63905-7e09-4f30-8af3-08ee32fc986e",
      "lastUpdated": 1706370399689,
      "name": "Replay button",
      "parent": null,
      "index": "Zo",
      "isVisible": true,
      "isLocked": false,
      "collapsed": false,
      "activeState": null,
      "activeParentStateId": null,
      "states": {},
      "parentStates": {},
      "startState": null,
      "colliders": {},
      "ttl": 0,
      "asset": null,
      "assetSource": null,
      "isInstance": false,
      "importedAnimations": {},
      "behaviors": {},
      "interactions": {},
      "version": 231130,
      "_metadata": {},
      "position": {
        "x": 3.0111296235595177,
        "y": 0.21943287919550833,
        "z": -0.027982510351159895
      },
      "rotation": {
        "x": 1.3962634015954631,
        "y": 0,
        "z": 0
      },
      "scale": {
        "x": 1,
        "y": 0.99999999999999978,
        "z": 0.99999999999999978
      },
      "isScaleLinked": true,
      "lastGeometryUpdated": 1706387707314,
      "subdivisions": 0,
      "parameters": {
        "width": 0.061,
        "height": 0,
        "depth": 0.062,
        "radii": {
          "tl": 0,
          "tr": 0,
          "br": 0,
          "bl": 0
        },
        "bendAngle": 0,
        "areDimensionsLinked": false,
        "radiusSegments": 16,
        "bendSegments": 16
      },
      "material": "d3a8ec14-0aa2-4dec-babe-e42a5661bc27",
      "viewSettings": {
        "castShadow": true,
        "receiveShadow": true,
        "side": 0
      },
      "isInteractive": true,
      "layerOpacity": 1,
      "activeImportedAnimation": null,
      "urlKey": null,
      "assetVersion": 0
    },
    {
      "overrides": null,
      "id": "1c0bdd5b-5b4e-4fad-b390-7101da176277",
      "type": "Plane",
      "lastWriter": "b3a63905-7e09-4f30-8af3-08ee32fc986e",
      "lastUpdated": 1706370412398,
      "name": "Footprint 1",
      "parent": null,
      "index": "Zn",
      "isVisible": true,
      "isLocked": false,
      "collapsed": false,
      "activeState": null,
      "activeParentStateId": null,
      "states": {},
      "parentStates": {},
      "startState": null,
      "colliders": {},
      "ttl": 0,
      "asset": null,
      "assetSource": null,
      "isInstance": false,
      "importedAnimations": {},
      "behaviors": {},
      "interactions": {},
      "version": 231130,
      "_metadata": {},
      "position": {
        "x": 1.6402379169013712,
        "y": 0,
        "z": 0.32236962062514923
      },
      "rotation": {
        "x": 0,
        "y": 0,
        "z": 0
      },
      "scale": {
        "x": 1,
        "y": 1,
        "z": 1
      },
      "isScaleLinked": true,
      "lastGeometryUpdated": 1706387707322,
      "subdivisions": 0,
      "parameters": {
        "width": 0.12,
        "height": 0,
        "depth": 0.253,
        "radii": {
          "tl": 0,
          "tr": 0,
          "br": 0,
          "bl": 0
        },
        "bendAngle": 0,
        "areDimensionsLinked": false,
        "radiusSegments": 16,
        "bendSegments": 16
      },
      "material": "8ffef3b9-e6bb-4fa8-a115-b5c952ace336",
      "viewSettings": {
        "castShadow": true,
        "receiveShadow": true,
        "side": 0
      },
      "isInteractive": true,
      "layerOpacity": 1,
      "activeImportedAnimation": null,
      "urlKey": null,
      "assetVersion": 0
    },
    {
      "overrides": null,
      "id": "506dc6ce-294f-4174-9073-34bc6e2e43ad",
      "type": "Plane",
      "lastWriter": "b3a63905-7e09-4f30-8af3-08ee32fc986e",
      "lastUpdated": 1706370416634,
      "name": "Footprint 2",
      "parent": null,
      "index": "Zm",
      "isVisible": true,
      "isLocked": false,
      "collapsed": false,
      "activeState": null,
      "activeParentStateId": null,
      "states": {},
      "parentStates": {},
      "startState": null,
      "colliders": {},
      "ttl": 0,
      "asset": null,
      "assetSource": null,
      "isInstance": false,
      "importedAnimations": {},
      "behaviors": {},
      "interactions": {},
      "version": 231130,
      "_metadata": {},
      "position": {
        "x": 1.8239033841259951,
        "y": 0,
        "z": 0.32236962062514923
      },
      "rotation": {
        "x": 0,
        "y": 0,
        "z": 0
      },
      "scale": {
        "x": 1,
        "y": 1,
        "z": 1
      },
      "isScaleLinked": true,
      "lastGeometryUpdated": 1706387707334,
      "subdivisions": 0,
      "parameters": {
        "width": 0.12,
        "height": 0,
        "depth": 0.253,
        "radii": {
          "tl": 0,
          "tr": 0,
          "br": 0,
          "bl": 0
        },
        "bendAngle": 0,
        "areDimensionsLinked": false,
        "radiusSegments": 16,
        "bendSegments": 16
      },
      "material": "a902b19a-45ae-4ed2-b85f-02b67f3483bd",
      "viewSettings": {
        "castShadow": true,
        "receiveShadow": true,
        "side": 0
      },
      "isInteractive": true,
      "layerOpacity": 1,
      "activeImportedAnimation": null,
      "urlKey": null,
      "assetVersion": 0
    },
    {
      "overrides": null,
      "id": "0fe5f4e1-cc9c-4d7b-878d-55ab7597bb7b",
      "type": "Model",
      "lastWriter": "b3a63905-7e09-4f30-8af3-08ee32fc986e",
      "lastUpdated": 1706381091210,
      "name": "mesh_0",
      "parent": "7edd0eb6-310d-41b5-9def-760d0b9c35e9",
      "index": "Ze",
      "isVisible": true,
      "isLocked": false,
      "collapsed": false,
      "activeState": null,
      "activeParentStateId": null,
      "states": {},
      "parentStates": {},
      "startState": null,
      "colliders": {},
      "ttl": 0,
      "asset": null,
      "assetSource": null,
      "isInstance": false,
      "importedAnimations": {},
      "behaviors": {},
      "interactions": {},
      "version": 231130,
      "_metadata": {},
      "position": {
        "x": 0,
        "y": 0,
        "z": 0
      },
      "rotation": {
        "x": 0,
        "y": 0,
        "z": 0
      },
      "scale": {
        "x": 1,
        "y": 1,
        "z": 1
      },
      "isScaleLinked": true,
      "lastGeometryUpdated": 1706387720638,
      "subdivisions": 0,
      "parameters": {
        "width": 1.1488308906555176,
        "height": 1.1999999284744263,
        "depth": 1.1434022188186646,
        "areDimensionsLinked": false
      },
      "material": "03bcd244-39be-45b8-8e2c-824386a1f380",
      "viewSettings": {
        "castShadow": true,
        "receiveShadow": true,
        "side": 0
      },
      "isInteractive": true,
      "layerOpacity": 1,
      "activeImportedAnimation": null,
      "urlKey": "8bca9ab0-6bc6-43a2-8330-5c6c00cedbcf",
      "assetVersion": 0
    },
    {
      "overrides": null,
      "id": "7edd0eb6-310d-41b5-9def-760d0b9c35e9",
      "type": "Group",
      "lastWriter": "b3a63905-7e09-4f30-8af3-08ee32fc986e",
      "lastUpdated": 1706381091210,
      "name": "",
      "parent": "e1007ecc-c848-460c-a63b-c84f651e9eb7",
      "index": "Ze",
      "isVisible": true,
      "isLocked": false,
      "collapsed": false,
      "activeState": null,
      "activeParentStateId": null,
      "states": {},
      "parentStates": {},
      "startState": null,
      "colliders": {},
      "ttl": 0,
      "asset": null,
      "assetSource": null,
      "isInstance": false,
      "importedAnimations": {},
      "behaviors": {},
      "interactions": {},
      "version": 231130,
      "_metadata": {},
      "position": {
        "x": 0,
        "y": 0,
        "z": 0
      },
      "rotation": {
        "x": 0,
        "y": 0,
        "z": 0
      },
      "scale": {
        "x": 1,
        "y": 1,
        "z": 1
      },
      "isScaleLinked": true,
      "lastGeometryUpdated": 0,
      "subdivisions": 0,
      "parameters": {
        "helperType": "NONE"
      },
      "viewSettings": {
        "castShadow": true,
        "receiveShadow": true,
        "side": 0
      },
      "isInteractive": true,
      "layerOpacity": 1,
      "activeImportedAnimation": null,
      "urlKey": null,
      "assetVersion": 0
    },
    {
      "overrides": null,
      "id": "e1007ecc-c848-460c-a63b-c84f651e9eb7",
      "type": "Group",
      "lastWriter": "b3a63905-7e09-4f30-8af3-08ee32fc986e",
      "lastUpdated": 1706381864963,
      "name": "model",
      "parent": null,
      "index": "Zf",
      "isVisible": true,
      "isLocked": false,
      "collapsed": false,
      "activeState": null,
      "activeParentStateId": null,
      "states": {},
      "parentStates": {},
      "startState": null,
      "colliders": {},
      "ttl": 0,
      "asset": null,
      "assetSource": null,
      "isInstance": false,
      "importedAnimations": {},
      "behaviors": {},
      "interactions": {},
      "version": 231130,
      "_metadata": {},
      "position": {
        "x": 1.4150132141656702,
        "y": 0.78561975853183785,
        "z": -0.094257155069573148
      },
      "rotation": {
        "x": 1.2246467991473532E-16,
        "y": -1.2246467991473532E-16,
        "z": -1.2246467991473532E-16
      },
      "scale": {
        "x": 0.14271644049799811,
        "y": 0.14271644049799811,
        "z": 0.14271644049799811
      },
      "isScaleLinked": true,
      "lastGeometryUpdated": 0,
      "subdivisions": 0,
      "parameters": {
        "helperType": "NONE"
      },
      "viewSettings": {
        "castShadow": true,
        "receiveShadow": true,
        "side": 0
      },
      "isInteractive": true,
      "layerOpacity": 1,
      "activeImportedAnimation": null,
      "urlKey": null,
      "assetVersion": 0
    },
    {
      "overrides": null,
      "id": "b1bade13-fd33-4371-9d9d-5870ea5b08a6",
      "type": "Plane",
      "lastWriter": "b3a63905-7e09-4f30-8af3-08ee32fc986e",
      "lastUpdated": 1706381642800,
      "name": "Welcome",
      "parent": null,
      "index": "Ze",
      "isVisible": true,
      "isLocked": false,
      "collapsed": false,
      "activeState": null,
      "activeParentStateId": null,
      "states": {},
      "parentStates": {},
      "startState": null,
      "colliders": {},
      "ttl": 0,
      "asset": null,
      "assetSource": null,
      "isInstance": false,
      "importedAnimations": {},
      "behaviors": {},
      "interactions": {},
      "version": 231130,
      "_metadata": {},
      "position": {
        "x": 2.1733161250862953,
        "y": 0.84842893306004907,
        "z": -0.14960091211218327
      },
      "rotation": {
        "x": 1.3962634015954631,
        "y": 0,
        "z": 0
      },
      "scale": {
        "x": 1,
        "y": 0.99999999999999978,
        "z": 0.99999999999999978
      },
      "isScaleLinked": true,
      "lastGeometryUpdated": 1706387707404,
      "subdivisions": 0,
      "parameters": {
        "width": 1.012,
        "height": 0,
        "depth": 0.484,
        "radii": {
          "tl": 0,
          "tr": 0,
          "br": 0,
          "bl": 0
        },
        "bendAngle": 0,
        "areDimensionsLinked": false,
        "radiusSegments": 16,
        "bendSegments": 16
      },
      "material": "f6fa4a73-068a-499b-adc8-35eb271af52e",
      "viewSettings": {
        "castShadow": true,
        "receiveShadow": true,
        "side": 0
      },
      "isInteractive": true,
      "layerOpacity": 1,
      "activeImportedAnimation": null,
      "urlKey": null,
      "assetVersion": 0
    },
    {
      "overrides": null,
      "id": "1df862a6-17b0-44dc-92e1-7b95f3aad343",
      "type": "Plane",
      "lastWriter": "b3a63905-7e09-4f30-8af3-08ee32fc986e",
      "lastUpdated": 1706381877910,
      "name": "Info Icon",
      "parent": null,
      "index": "Zg",
      "isVisible": true,
      "isLocked": false,
      "collapsed": false,
      "activeState": null,
      "activeParentStateId": null,
      "states": {},
      "parentStates": {},
      "startState": null,
      "colliders": {},
      "ttl": 0,
      "asset": null,
      "assetSource": null,
      "isInstance": false,
      "importedAnimations": {},
      "behaviors": {},
      "interactions": {},
      "version": 231130,
      "_metadata": {},
      "position": {
        "x": 0.86113153205365,
        "y": 0.67607313691476989,
        "z": -0.10926633775487543
      },
      "rotation": {
        "x": 1.3962634015954629,
        "y": 3.1415926535897931,
        "z": -1.2246467991473532E-16
      },
      "scale": {
        "x": 1,
        "y": 0.99999999999999989,
        "z": 0.99999999999999967
      },
      "isScaleLinked": true,
      "lastGeometryUpdated": 1706387707420,
      "subdivisions": 0,
      "parameters": {
        "width": 0.034592799434475158,
        "height": 0,
        "depth": 0.034592799434475151,
        "radii": {
          "tl": 0,
          "tr": 0,
          "br": 0,
          "bl": 0
        },
        "bendAngle": 0,
        "areDimensionsLinked": false,
        "radiusSegments": 16,
        "bendSegments": 16
      },
      "material": "999477cf-6d8a-4db9-9d89-e387bd14ba48",
      "viewSettings": {
        "castShadow": true,
        "receiveShadow": true,
        "side": 0
      },
      "isInteractive": true,
      "layerOpacity": 1,
      "activeImportedAnimation": null,
      "urlKey": null,
      "assetVersion": 0
    },
    {
      "overrides": null,
      "id": "57e709dc-d139-4d84-aa6d-0942933dce57",
      "type": "Plane",
      "lastWriter": "b3a63905-7e09-4f30-8af3-08ee32fc986e",
      "lastUpdated": 1706381883925,
      "name": "Notification popup",
      "parent": null,
      "index": "Zh",
      "isVisible": true,
      "isLocked": false,
      "collapsed": false,
      "activeState": null,
      "activeParentStateId": null,
      "states": {},
      "parentStates": {},
      "startState": null,
      "colliders": {},
      "ttl": 0,
      "asset": null,
      "assetSource": null,
      "isInstance": false,
      "importedAnimations": {},
      "behaviors": {},
      "interactions": {},
      "version": 231130,
      "_metadata": {},
      "position": {
        "x": 1.0155366237960142,
        "y": 0.67516029567670444,
        "z": -0.11099777003339631
      },
      "rotation": {
        "x": 1.3962634015954631,
        "y": 0,
        "z": 0
      },
      "scale": {
        "x": 1,
        "y": 0.99999999999999978,
        "z": 0.99999999999999978
      },
      "isScaleLinked": true,
      "lastGeometryUpdated": 1706387707429,
      "subdivisions": 0,
      "parameters": {
        "width": 0.396,
        "height": 0,
        "depth": 0.099,
        "radii": {
          "tl": 0,
          "tr": 0,
          "br": 0,
          "bl": 0
        },
        "bendAngle": 0,
        "areDimensionsLinked": false,
        "radiusSegments": 16,
        "bendSegments": 16
      },
      "material": "e12118de-474b-49c7-bf30-79cd61541a8c",
      "viewSettings": {
        "castShadow": true,
        "receiveShadow": true,
        "side": 0
      },
      "isInteractive": true,
      "layerOpacity": 1,
      "activeImportedAnimation": null,
      "urlKey": null,
      "assetVersion": 0
    },
    {
      "id": "1276fa12-564d-4cd0-b3f3-8ce222e58128",
      "type": "Plane",
      "lastWriter": "b3a63905-7e09-4f30-8af3-08ee32fc986e",
      "lastUpdated": 1706391441455,
      "name": "Instructions",
      "position": {
        "x": -0.040880457875113962,
        "y": 1.0992545944510632,
        "z": -0.19382824366946466
      },
      "rotation": {
        "x": 1.3962634015954631,
        "y": 0,
        "z": 0
      },
      "scale": {
        "x": 1,
        "y": 0.99999999999999978,
        "z": 0.99999999999999978
      },
      "parent": null,
      "index": "Zd",
      "isVisible": true,
      "isLocked": false,
      "collapsed": false,
      "isScaleLinked": true,
      "urlKey": null,
      "lastGeometryUpdated": 1706391441069,
      "subdivisions": 0,
      "activeState": null,
      "activeParentStateId": null,
      "startState": null,
      "states": {},
      "parentStates": {},
      "ttl": 0,
      "parameters": {
        "width": 0.559,
        "depth": 0.833,
        "radii": {
          "tl": 0,
          "tr": 0,
          "br": 0,
          "bl": 0
        },
        "height": 0,
        "bendAngle": 0,
        "areDimensionsLinked": false,
        "radiusSegments": 16,
        "bendSegments": 16
      },
      "colliders": {},
      "asset": null,
      "assetSource": null,
      "isInstance": false,
      "assetVersion": 0,
      "overrides": null,
      "activeImportedAnimation": null,
      "importedAnimations": {},
      "behaviors": {},
      "viewSettings": {
        "castShadow": true,
        "receiveShadow": true,
        "side": 0
      },
      "isInteractive": true,
      "layerOpacity": 1,
      "interactions": {},
      "version": 231130,
      "_metadata": {},
      "material": "f88ac168-cb23-4566-a744-79ab9c3fe3b3"
    }
  ]
}