{
  "bezel_objects": [
    {
      "overrides": null,
      "id": "14a02ca5-692d-4e0a-a939-9b6ce7d63eba",
      "type": "Plane",
      "lastWriter": "b3a63905-7e09-4f30-8af3-08ee32fc986e",
      "lastUpdated": 1706450337330,
      "name": "Info Icon 1",
      "parent": null,
      "index": "Zz",
      "isVisible": true,
      "isLocked": false,
      "collapsed": false,
      "activeState": null,
      "activeParentStateId": null,
      "states": {},
      "parentStates": {},
      "startState": null,
      "colliders": {},
      "ttl": 0,
      "asset": null,
      "assetSource": null,
      "isInstance": false,
      "importedAnimations": {},
      "behaviors": {},
      "interactions": {},
      "version": 231130,
      "_metadata": {},
      "position": {
        "x": 0.13320972399129075,
        "y": 0.21804145284171322,
        "z": -0.035182480085539494
      },
      "rotation": {
        "x": 1.3962634015954629,
        "y": 3.1415926535897931,
        "z": -1.2246467991473532E-16
      },
      "scale": {
        "x": 1,
        "y": 0.99999999999999933,
        "z": 0.99999999999999911
      },
      "isScaleLinked": true,
      "lastGeometryUpdated": 1706450427495,
      "subdivisions": 0,
      "parameters": {
        "width": 0.034592799434475158,
        "height": 0,
        "depth": 0.034592799434475151,
        "radii": {
          "tl": 0,
          "tr": 0,
          "br": 0,
          "bl": 0
        },
        "bendAngle": 0,
        "areDimensionsLinked": false,
        "radiusSegments": 16,
        "bendSegments": 16
      },
      "material": "b3bd28d9-58fb-45d6-9ca0-113cb5954264",
      "viewSettings": {
        "castShadow": true,
        "receiveShadow": true,
        "side": 0
      },
      "isInteractive": true,
      "layerOpacity": 1,
      "activeImportedAnimation": null,
      "urlKey": null,
      "assetVersion": 0
    },
    {
      "id": "ad8392ff-7e9f-426c-8a78-ad7dabb61c5d",
      "type": "Plane",
      "lastWriter": "b3a63905-7e09-4f30-8af3-08ee32fc986e",
      "lastUpdated": 1706453103493,
      "name": "Figma Frame 2",
      "position": {
        "x": 0.29,
        "y": 0.22,
        "z": -0.04
      },
      "rotation": {
        "x": 1.3962634015954636,
        "y": 0,
        "z": 0
      },
      "scale": {
        "x": 1,
        "y": 1,
        "z": 1
      },
      "parent": null,
      "index": "Zy",
      "isVisible": true,
      "isLocked": false,
      "collapsed": false,
      "isScaleLinked": true,
      "urlKey": null,
      "lastGeometryUpdated": 1706450853965,
      "subdivisions": 0,
      "activeState": null,
      "activeParentStateId": null,
      "startState": null,
      "states": {},
      "parentStates": {},
      "ttl": 0,
      "parameters": {
        "width": 0.396,
        "depth": 0.072,
        "radii": {
          "tl": 0,
          "tr": 0,
          "br": 0,
          "bl": 0
        },
        "height": 0,
        "bendAngle": 0,
        "areDimensionsLinked": false,
        "radiusSegments": 16,
        "bendSegments": 16
      },
      "colliders": {},
      "asset": null,
      "assetSource": null,
      "isInstance": false,
      "assetVersion": 0,
      "overrides": null,
      "activeImportedAnimation": null,
      "importedAnimations": {},
      "behaviors": {},
      "viewSettings": {
        "castShadow": true,
        "receiveShadow": true,
        "side": 0
      },
      "isInteractive": true,
      "layerOpacity": 1,
      "interactions": {},
      "version": 231130,
      "_metadata": {},
      "material": "be095dbc-07b1-4113-9f17-acbeee605e5d"
    },
    {
      "id": "3e9040fb-dd9a-4986-a2e4-5ef903eae4e3",
      "type": "Plane",
      "lastWriter": "b3a63905-7e09-4f30-8af3-08ee32fc986e",
      "lastUpdated": 1706453031335,
      "name": "Figma Frame 3",
      "position": {
        "x": 0.87131670297835728,
        "y": 0.51932402121222365,
        "z": -0.091570836669730482
      },
      "rotation": {
        "x": 1.3962634015954631,
        "y": 0,
        "z": 0
      },
      "scale": {
        "x": 1,
        "y": 0.99999999999999978,
        "z": 0.99999999999999978
      },
      "parent": null,
      "index": "Zx",
      "isVisible": true,
      "isLocked": false,
      "collapsed": false,
      "isScaleLinked": true,
      "urlKey": null,
      "lastGeometryUpdated": 1706453033336,
      "subdivisions": 0,
      "activeState": null,
      "activeParentStateId": null,
      "startState": null,
      "states": {},
      "parentStates": {},
      "ttl": 0,
      "parameters": {
        "width": 0.559,
        "depth": 0.833,
        "radii": {
          "tl": 0,
          "tr": 0,
          "br": 0,
          "bl": 0
        },
        "height": 0,
        "bendAngle": 0,
        "areDimensionsLinked": false,
        "radiusSegments": 16,
        "bendSegments": 16
      },
      "colliders": {},
      "asset": null,
      "assetSource": null,
      "isInstance": false,
      "assetVersion": 0,
      "overrides": null,
      "activeImportedAnimation": null,
      "importedAnimations": {},
      "behaviors": {},
      "viewSettings": {
        "castShadow": true,
        "receiveShadow": true,
        "side": 0
      },
      "isInteractive": true,
      "layerOpacity": 1,
      "interactions": {},
      "version": 231130,
      "_metadata": {},
      "material": "dbc2a30f-a2b5-4a73-aa94-9806daa47f41"
    },
    {
      "id": "5d37f111-1a12-496a-9d59-5becc2f45ea0",
      "type": "Plane",
      "lastWriter": "b3a63905-7e09-4f30-8af3-08ee32fc986e",
      "lastUpdated": 1706412784404,
      "name": "Figma Frame 4",
      "position": {
        "x": 1.6114765082053344,
        "y": 0.42,
        "z": -0.07
      },
      "rotation": {
        "x": 1.3962634015954631,
        "y": 0,
        "z": 0
      },
      "scale": {
        "x": 1,
        "y": 0.99999999999999978,
        "z": 0.99999999999999978
      },
      "parent": null,
      "index": "Zw",
      "isVisible": true,
      "isLocked": false,
      "collapsed": false,
      "isScaleLinked": true,
      "urlKey": null,
      "lastGeometryUpdated": 1706453135491,
      "subdivisions": 0,
      "activeState": null,
      "activeParentStateId": null,
      "startState": null,
      "states": {},
      "parentStates": {},
      "ttl": 0,
      "parameters": {
        "width": 0.425,
        "depth": 0.578,
        "radii": {
          "tl": 0,
          "tr": 0,
          "br": 0,
          "bl": 0
        },
        "height": 0,
        "bendAngle": 0,
        "areDimensionsLinked": false,
        "radiusSegments": 16,
        "bendSegments": 16
      },
      "colliders": {},
      "asset": null,
      "assetSource": null,
      "isInstance": false,
      "assetVersion": 0,
      "overrides": null,
      "activeImportedAnimation": null,
      "importedAnimations": {},
      "behaviors": {},
      "viewSettings": {
        "castShadow": true,
        "receiveShadow": true,
        "side": 0
      },
      "isInteractive": true,
      "layerOpacity": 1,
      "interactions": {},
      "version": 231130,
      "_metadata": {},
      "material": "be504fa3-4b56-473e-9486-7a5f5bb7b2d1"
    },
    {
      "overrides": null,
      "id": "a4ca8e6e-2d5b-4804-a38e-fea4252ce31c",
      "type": "Plane",
      "lastWriter": "b3a63905-7e09-4f30-8af3-08ee32fc986e",
      "lastUpdated": 1706369316154,
      "name": "Exit button 3",
      "parent": null,
      "index": "Zv",
      "isVisible": true,
      "isLocked": false,
      "collapsed": false,
      "activeState": null,
      "activeParentStateId": null,
      "states": {},
      "parentStates": {},
      "startState": null,
      "colliders": {},
      "ttl": 0,
      "asset": null,
      "assetSource": null,
      "isInstance": false,
      "importedAnimations": {},
      "behaviors": {},
      "interactions": {},
      "version": 231130,
      "_metadata": {},
      "position": {
        "x": 1.7937023172367379,
        "y": 0.68046391908746284,
        "z": -0.11312766183971154
      },
      "rotation": {
        "x": 1.3962634015954631,
        "y": 0,
        "z": 0
      },
      "scale": {
        "x": 1,
        "y": 0.99999999999999978,
        "z": 0.99999999999999978
      },
      "isScaleLinked": true,
      "lastGeometryUpdated": 1706453135503,
      "subdivisions": 0,
      "parameters": {
        "width": 0.028920303830549617,
        "height": 0,
        "depth": 0.028920303830549617,
        "radii": {
          "tl": 0,
          "tr": 0,
          "br": 0,
          "bl": 0
        },
        "bendAngle": 0,
        "areDimensionsLinked": false,
        "radiusSegments": 16,
        "bendSegments": 16
      },
      "material": "1d499722-9e32-4e05-8c90-7506505843b1",
      "viewSettings": {
        "castShadow": true,
        "receiveShadow": true,
        "side": 0
      },
      "isInteractive": true,
      "layerOpacity": 1,
      "activeImportedAnimation": null,
      "urlKey": null,
      "assetVersion": 0
    },
    {
      "overrides": null,
      "id": "126c9d79-4f5a-4cbc-a288-ab087344230e",
      "type": "Plane",
      "lastWriter": "b3a63905-7e09-4f30-8af3-08ee32fc986e",
      "lastUpdated": 1706370399689,
      "name": "Replay button 2",
      "parent": null,
      "index": "Zu",
      "isVisible": true,
      "isLocked": false,
      "collapsed": false,
      "activeState": null,
      "activeParentStateId": null,
      "states": {},
      "parentStates": {},
      "startState": null,
      "colliders": {},
      "ttl": 0,
      "asset": null,
      "assetSource": null,
      "isInstance": false,
      "importedAnimations": {},
      "behaviors": {},
      "interactions": {},
      "version": 231130,
      "_metadata": {},
      "position": {
        "x": 1.6826061317648522,
        "y": 0.21943287919550833,
        "z": -0.027982510351159895
      },
      "rotation": {
        "x": 1.3962634015954631,
        "y": 0,
        "z": 0
      },
      "scale": {
        "x": 1,
        "y": 0.99999999999999978,
        "z": 0.99999999999999978
      },
      "isScaleLinked": true,
      "lastGeometryUpdated": 1706453135514,
      "subdivisions": 0,
      "parameters": {
        "width": 0.061,
        "height": 0,
        "depth": 0.062,
        "radii": {
          "tl": 0,
          "tr": 0,
          "br": 0,
          "bl": 0
        },
        "bendAngle": 0,
        "areDimensionsLinked": false,
        "radiusSegments": 16,
        "bendSegments": 16
      },
      "material": "9921d543-e7af-4b56-a468-002cb7c2eda5",
      "viewSettings": {
        "castShadow": true,
        "receiveShadow": true,
        "side": 0
      },
      "isInteractive": true,
      "layerOpacity": 1,
      "activeImportedAnimation": null,
      "urlKey": null,
      "assetVersion": 0
    },
    {
      "overrides": null,
      "id": "4529145e-55a0-4d50-9ad0-2fa782e53248",
      "type": "Plane",
      "lastWriter": "b3a63905-7e09-4f30-8af3-08ee32fc986e",
      "lastUpdated": 1706370391508,
      "name": "Home button 2",
      "parent": null,
      "index": "Zt",
      "isVisible": true,
      "isLocked": false,
      "collapsed": false,
      "activeState": null,
      "activeParentStateId": null,
      "states": {},
      "parentStates": {},
      "startState": null,
      "colliders": {},
      "ttl": 0,
      "asset": null,
      "assetSource": null,
      "isInstance": false,
      "importedAnimations": {},
      "behaviors": {},
      "interactions": {},
      "version": 231130,
      "_metadata": {},
      "position": {
        "x": 1.5493015499262817,
        "y": 0.21906075384712614,
        "z": -0.030092938074058686
      },
      "rotation": {
        "x": 1.3962634015954631,
        "y": 0,
        "z": 0
      },
      "scale": {
        "x": 1,
        "y": 0.99999999999999978,
        "z": 0.99999999999999978
      },
      "isScaleLinked": true,
      "lastGeometryUpdated": 1706453135521,
      "subdivisions": 0,
      "parameters": {
        "width": 0.061,
        "height": 0,
        "depth": 0.062,
        "radii": {
          "tl": 0,
          "tr": 0,
          "br": 0,
          "bl": 0
        },
        "bendAngle": 0,
        "areDimensionsLinked": false,
        "radiusSegments": 16,
        "bendSegments": 16
      },
      "material": "c30c4e6f-5a1c-4b5f-98aa-86ed8b1ca12e",
      "viewSettings": {
        "castShadow": true,
        "receiveShadow": true,
        "side": 0
      },
      "isInteractive": true,
      "layerOpacity": 1,
      "activeImportedAnimation": null,
      "urlKey": null,
      "assetVersion": 0
    }
  ]
}